[gd_scene load_steps=8 format=2]

[ext_resource path="res://Ficha.gd" type="Script" id=1]
[ext_resource path="res://sprites/ficha2-lado1.png" type="Texture" id=2]
[ext_resource path="res://sprites/ficha2-lado2.png" type="Texture" id=3]
[ext_resource path="res://sprites/Player1Side1.png" type="Texture" id=4]
[ext_resource path="res://sprites/Player1Side2.png" type="Texture" id=5]




[sub_resource type="SpriteFrames" id=1]

animations = [ {
"frames": [ ExtResource( 2 ), ExtResource( 3 ) ],
"loop": false,
"name": "ficha2",
"speed": 5.0
}, {
"frames": [ ExtResource( 4 ), ExtResource( 5 ) ],
"loop": false,
"name": "ficha1",
"speed": 5.0
} ]

[sub_resource type="RectangleShape2D" id=2]

custom_solver_bias = 0.0
extents = Vector2( 50.0733, 49.9436 )

[node name="Ficha" type="Area2D"]

input_pickable = true
gravity_vec = Vector2( 0, 1 )
gravity = 98.0
linear_damp = 0.1
angular_damp = 1.0
audio_bus_override = false
audio_bus_name = "Master"
script = ExtResource( 1 )
_sections_unfolded = [ "Collision" ]

[node name="AnimatedSprite" type="AnimatedSprite" parent="." index="0"]

scale = Vector2( 1.5, 1.5 )
frames = SubResource( 1 )
animation = "ficha1"
_sections_unfolded = [ "Transform" ]

[node name="CollisionShape2D" type="CollisionShape2D" parent="." index="1"]

shape = SubResource( 2 )

[connection signal="mouse_entered" from="." to="." method="_on_Ficha_mouse_entered"]

[connection signal="mouse_exited" from="." to="." method="_on_Ficha_mouse_exited"]


