[gd_scene load_steps=4 format=2]

[ext_resource path="res://sprites/Player1Side1.png" type="Texture" id=1]
[ext_resource path="res://FichaSimple.gd" type="Script" id=2]

[sub_resource type="RectangleShape2D" id=1]

custom_solver_bias = 0.0
extents = Vector2( 32.0049, 31.6883 )
_sections_unfolded = [ "Resource" ]

[node name="Sprite" type="Sprite" index="0"]

texture = ExtResource( 1 )
script = ExtResource( 2 )
TYPE = null
SIDE = null

[node name="Area2D" type="Area2D" parent="." index="0"]

input_pickable = true
gravity_vec = Vector2( 0, 1 )
gravity = 98.0
linear_damp = 0.1
angular_damp = 1.0
audio_bus_override = false
audio_bus_name = "Master"
_sections_unfolded = [ "Collision", "Pickable", "Transform", "Z Index" ]

[node name="CollisionShape2D" type="CollisionShape2D" parent="Area2D" index="0"]

shape = SubResource( 1 )

[connection signal="mouse_entered" from="Area2D" to="." method="_on_Area2D_mouse_entered"]

[connection signal="mouse_exited" from="Area2D" to="." method="_on_Area2D_mouse_exited"]


